<svg xmlns="http://www.w3.org/2000/svg" width="30" height="30" viewBox="0 0 30 30">
  <metadata><?xpacket begin="﻿" id="W5M0MpCehiHzreSzNTczkc9d"?>
<x:xmpmeta xmlns:x="adobe:ns:meta/" x:xmptk="Adobe XMP Core 5.6-c138 79.159824, 2016/09/14-01:09:01        ">
   <rdf:RDF xmlns:rdf="http://www.w3.org/1999/02/22-rdf-syntax-ns#">
      <rdf:Description rdf:about=""/>
   </rdf:RDF>
</x:xmpmeta>
                                                                                                    
                                                                                                    
                                                                                                    
                                                                                                    
                                                                                                    
                                                                                                    
                                                                                                    
                                                                                                    
                                                                                                    
                                                                                                    
                                                                                                    
                                                                                                    
                                                                                                    
                                                                                                    
                                                                                                    
                                                                                                    
                                                                                                    
                                                                                                    
                                                                                                    
                                                                                                    
                           
<?xpacket end="w"?></metadata>
<defs>
    <style>
      .cls-1 {
        fill: #00a025;
        fill-rule: evenodd;
      }
    </style>
  </defs>
  <path id="power_socket" class="cls-1" d="M26.65,0H3.35A3.354,3.354,0,0,0,0,3.35v23.3A3.354,3.354,0,0,0,3.35,30h23.3A3.354,3.354,0,0,0,30,26.65V3.35A3.354,3.354,0,0,0,26.65,0Zm2.392,26.65a2.4,2.4,0,0,1-2.392,2.392H3.35A2.4,2.4,0,0,1,.957,26.65V3.35A2.4,2.4,0,0,1,3.35.957h23.3A2.4,2.4,0,0,1,29.043,3.35v23.3ZM25.564,3.957H4.436a0.479,0.479,0,0,0-.479.479V25.564a0.479,0.479,0,0,0,.479.479H6.989a0.479,0.479,0,0,0,0-.957H4.915V4.915h20.17v0.8a0.479,0.479,0,0,0,.957,0V4.436A0.479,0.479,0,0,0,25.564,3.957Zm0,3.191a0.479,0.479,0,0,0-.479.479V25.085H8.9a0.479,0.479,0,0,0,0,.957h16.66a0.479,0.479,0,0,0,.479-0.479V7.628A0.479,0.479,0,0,0,25.564,7.149ZM15,23.936A8.936,8.936,0,1,0,6.064,15,8.946,8.946,0,0,0,15,23.936Zm-0.479-16.9V8.457a0.479,0.479,0,1,0,.957,0V7.036a7.978,7.978,0,0,1,0,15.928V21.543a0.479,0.479,0,1,0-.957,0v1.421A7.978,7.978,0,0,1,14.521,7.036Zm-3.412,9.4A1.436,1.436,0,1,0,9.673,15,1.438,1.438,0,0,0,11.109,16.436Zm0-1.915A0.479,0.479,0,1,1,10.63,15,0.479,0.479,0,0,1,11.109,14.521Zm7.782,1.915A1.436,1.436,0,1,0,17.455,15,1.438,1.438,0,0,0,18.891,16.436Zm0-1.915a0.479,0.479,0,1,1-.479.479A0.479,0.479,0,0,1,18.891,14.521Z"/>
</svg>
